^C:\USERS\PATRYK\DOCUMENTS\VISUAL STUDIO 2013\PROJECTS\INWAZJAWIKINGOW\INWAZJAWIKINGOW\STDAFX.CPP
C:\USERS\PATRYK\DOCUMENTS\VISUAL STUDIO 2013\PROJECTS\INWAZJAWIKINGOW\INWAZJAWIKINGOW\DEBUG\INWAZJAWIKINGOW.PCH
C:\USERS\PATRYK\DOCUMENTS\VISUAL STUDIO 2013\PROJECTS\INWAZJAWIKINGOW\INWAZJAWIKINGOW\DEBUG\VC120.PDB
C:\USERS\PATRYK\DOCUMENTS\VISUAL STUDIO 2013\PROJECTS\INWAZJAWIKINGOW\INWAZJAWIKINGOW\DEBUG\VC120.IDB
C:\USERS\PATRYK\DOCUMENTS\VISUAL STUDIO 2013\PROJECTS\INWAZJAWIKINGOW\INWAZJAWIKINGOW\DEBUG\STDAFX.OBJ
^C:\USERS\PATRYK\DOCUMENTS\VISUAL STUDIO 2013\PROJECTS\INWAZJAWIKINGOW\INWAZJAWIKINGOW\INWAZJAWIKINGOW.CPP|C:\USERS\PATRYK\DOCUMENTS\VISUAL STUDIO 2013\PROJECTS\INWAZJAWIKINGOW\INWAZJAWIKINGOW\STEROWANIE.CPP|C:\USERS\PATRYK\DOCUMENTS\VISUAL STUDIO 2013\PROJECTS\INWAZJAWIKINGOW\INWAZJAWIKINGOW\TALIA.CPP|C:\USERS\PATRYK\DOCUMENTS\VISUAL STUDIO 2013\PROJECTS\INWAZJAWIKINGOW\INWAZJAWIKINGOW\WYGLAD.CPP
C:\USERS\PATRYK\DOCUMENTS\VISUAL STUDIO 2013\PROJECTS\INWAZJAWIKINGOW\INWAZJAWIKINGOW\DEBUG\VC120.PDB
C:\USERS\PATRYK\DOCUMENTS\VISUAL STUDIO 2013\PROJECTS\INWAZJAWIKINGOW\INWAZJAWIKINGOW\DEBUG\VC120.IDB
C:\USERS\PATRYK\DOCUMENTS\VISUAL STUDIO 2013\PROJECTS\INWAZJAWIKINGOW\INWAZJAWIKINGOW\DEBUG\STEROWANIE.OBJ
^C:\USERS\PATRYK\DOCUMENTS\VISUAL STUDIO 2013\PROJECTS\INWAZJAWIKINGOW\INWAZJAWIKINGOW\INWAZJAWIKINGOW.CPP
C:\USERS\PATRYK\DOCUMENTS\VISUAL STUDIO 2013\PROJECTS\INWAZJAWIKINGOW\INWAZJAWIKINGOW\DEBUG\VC120.PDB
C:\USERS\PATRYK\DOCUMENTS\VISUAL STUDIO 2013\PROJECTS\INWAZJAWIKINGOW\INWAZJAWIKINGOW\DEBUG\VC120.IDB
C:\USERS\PATRYK\DOCUMENTS\VISUAL STUDIO 2013\PROJECTS\INWAZJAWIKINGOW\INWAZJAWIKINGOW\DEBUG\INWAZJAWIKINGOW.OBJ
^C:\USERS\PATRYK\DOCUMENTS\VISUAL STUDIO 2013\PROJECTS\INWAZJAWIKINGOW\INWAZJAWIKINGOW\STEROWANIE.CPP
C:\USERS\PATRYK\DOCUMENTS\VISUAL STUDIO 2013\PROJECTS\INWAZJAWIKINGOW\INWAZJAWIKINGOW\DEBUG\VC120.PDB
^C:\USERS\PATRYK\DOCUMENTS\VISUAL STUDIO 2013\PROJECTS\INWAZJAWIKINGOW\INWAZJAWIKINGOW\TALIA.CPP
C:\USERS\PATRYK\DOCUMENTS\VISUAL STUDIO 2013\PROJECTS\INWAZJAWIKINGOW\INWAZJAWIKINGOW\DEBUG\VC120.PDB
C:\USERS\PATRYK\DOCUMENTS\VISUAL STUDIO 2013\PROJECTS\INWAZJAWIKINGOW\INWAZJAWIKINGOW\DEBUG\VC120.IDB
C:\USERS\PATRYK\DOCUMENTS\VISUAL STUDIO 2013\PROJECTS\INWAZJAWIKINGOW\INWAZJAWIKINGOW\DEBUG\TALIA.OBJ
^C:\USERS\PATRYK\DOCUMENTS\VISUAL STUDIO 2013\PROJECTS\INWAZJAWIKINGOW\INWAZJAWIKINGOW\WYGLAD.CPP
C:\USERS\PATRYK\DOCUMENTS\VISUAL STUDIO 2013\PROJECTS\INWAZJAWIKINGOW\INWAZJAWIKINGOW\DEBUG\VC120.PDB
C:\USERS\PATRYK\DOCUMENTS\VISUAL STUDIO 2013\PROJECTS\INWAZJAWIKINGOW\INWAZJAWIKINGOW\DEBUG\VC120.IDB
C:\USERS\PATRYK\DOCUMENTS\VISUAL STUDIO 2013\PROJECTS\INWAZJAWIKINGOW\INWAZJAWIKINGOW\DEBUG\WYGLAD.OBJ
^C:\USERS\PATRYK\DOCUMENTS\VISUAL STUDIO 2013\PROJECTS\INWAZJAWIKINGOW\INWAZJAWIKINGOW\INWAZJAWIKINGOW.CPP|C:\USERS\PATRYK\DOCUMENTS\VISUAL STUDIO 2013\PROJECTS\INWAZJAWIKINGOW\INWAZJAWIKINGOW\TALIA.CPP|C:\USERS\PATRYK\DOCUMENTS\VISUAL STUDIO 2013\PROJECTS\INWAZJAWIKINGOW\INWAZJAWIKINGOW\WYGLAD.CPP
C:\USERS\PATRYK\DOCUMENTS\VISUAL STUDIO 2013\PROJECTS\INWAZJAWIKINGOW\INWAZJAWIKINGOW\DEBUG\VC120.PDB
C:\USERS\PATRYK\DOCUMENTS\VISUAL STUDIO 2013\PROJECTS\INWAZJAWIKINGOW\INWAZJAWIKINGOW\DEBUG\VC120.IDB
C:\USERS\PATRYK\DOCUMENTS\VISUAL STUDIO 2013\PROJECTS\INWAZJAWIKINGOW\INWAZJAWIKINGOW\DEBUG\WYGLAD.OBJ
C:\USERS\PATRYK\DOCUMENTS\VISUAL STUDIO 2013\PROJECTS\INWAZJAWIKINGOW\INWAZJAWIKINGOW\DEBUG\TALIA.OBJ
C:\USERS\PATRYK\DOCUMENTS\VISUAL STUDIO 2013\PROJECTS\INWAZJAWIKINGOW\INWAZJAWIKINGOW\DEBUG\INWAZJAWIKINGOW.OBJ
^C:\USERS\PATRYK\DOCUMENTS\VISUAL STUDIO 2013\PROJECTS\INWAZJAWIKINGOW\INWAZJAWIKINGOW\TALIA.CPP|C:\USERS\PATRYK\DOCUMENTS\VISUAL STUDIO 2013\PROJECTS\INWAZJAWIKINGOW\INWAZJAWIKINGOW\WYGLAD.CPP
C:\USERS\PATRYK\DOCUMENTS\VISUAL STUDIO 2013\PROJECTS\INWAZJAWIKINGOW\INWAZJAWIKINGOW\DEBUG\VC120.PDB
C:\USERS\PATRYK\DOCUMENTS\VISUAL STUDIO 2013\PROJECTS\INWAZJAWIKINGOW\INWAZJAWIKINGOW\DEBUG\VC120.IDB
C:\USERS\PATRYK\DOCUMENTS\VISUAL STUDIO 2013\PROJECTS\INWAZJAWIKINGOW\INWAZJAWIKINGOW\DEBUG\WYGLAD.OBJ
^C:\USERS\PATRYK\DOCUMENTS\VISUAL STUDIO 2013\PROJECTS\INWAZJAWIKINGOW\INWAZJAWIKINGOW\INWAZJAWIKINGOW.CPP|C:\USERS\PATRYK\DOCUMENTS\VISUAL STUDIO 2013\PROJECTS\INWAZJAWIKINGOW\INWAZJAWIKINGOW\KARTA.CPP|C:\USERS\PATRYK\DOCUMENTS\VISUAL STUDIO 2013\PROJECTS\INWAZJAWIKINGOW\INWAZJAWIKINGOW\TALIA.CPP|C:\USERS\PATRYK\DOCUMENTS\VISUAL STUDIO 2013\PROJECTS\INWAZJAWIKINGOW\INWAZJAWIKINGOW\WYGLAD.CPP
C:\USERS\PATRYK\DOCUMENTS\VISUAL STUDIO 2013\PROJECTS\INWAZJAWIKINGOW\INWAZJAWIKINGOW\DEBUG\VC120.PDB
C:\USERS\PATRYK\DOCUMENTS\VISUAL STUDIO 2013\PROJECTS\INWAZJAWIKINGOW\INWAZJAWIKINGOW\DEBUG\VC120.IDB
C:\USERS\PATRYK\DOCUMENTS\VISUAL STUDIO 2013\PROJECTS\INWAZJAWIKINGOW\INWAZJAWIKINGOW\DEBUG\KARTA.OBJ
C:\USERS\PATRYK\DOCUMENTS\VISUAL STUDIO 2013\PROJECTS\INWAZJAWIKINGOW\INWAZJAWIKINGOW\DEBUG\TALIA.OBJ
C:\USERS\PATRYK\DOCUMENTS\VISUAL STUDIO 2013\PROJECTS\INWAZJAWIKINGOW\INWAZJAWIKINGOW\DEBUG\INWAZJAWIKINGOW.OBJ
C:\USERS\PATRYK\DOCUMENTS\VISUAL STUDIO 2013\PROJECTS\INWAZJAWIKINGOW\INWAZJAWIKINGOW\DEBUG\WYGLAD.OBJ
^C:\USERS\PATRYK\DOCUMENTS\VISUAL STUDIO 2013\PROJECTS\INWAZJAWIKINGOW\INWAZJAWIKINGOW\KARTA.CPP
C:\USERS\PATRYK\DOCUMENTS\VISUAL STUDIO 2013\PROJECTS\INWAZJAWIKINGOW\INWAZJAWIKINGOW\DEBUG\VC120.PDB
C:\USERS\PATRYK\DOCUMENTS\VISUAL STUDIO 2013\PROJECTS\INWAZJAWIKINGOW\INWAZJAWIKINGOW\DEBUG\VC120.IDB
C:\USERS\PATRYK\DOCUMENTS\VISUAL STUDIO 2013\PROJECTS\INWAZJAWIKINGOW\INWAZJAWIKINGOW\DEBUG\KARTA.OBJ
^C:\USERS\PATRYK\DOCUMENTS\VISUAL STUDIO 2013\PROJECTS\INWAZJAWIKINGOW\INWAZJAWIKINGOW\INWAZJAWIKINGOW.CPP|C:\USERS\PATRYK\DOCUMENTS\VISUAL STUDIO 2013\PROJECTS\INWAZJAWIKINGOW\INWAZJAWIKINGOW\WYGLAD.CPP
C:\USERS\PATRYK\DOCUMENTS\VISUAL STUDIO 2013\PROJECTS\INWAZJAWIKINGOW\INWAZJAWIKINGOW\DEBUG\VC120.PDB
C:\USERS\PATRYK\DOCUMENTS\VISUAL STUDIO 2013\PROJECTS\INWAZJAWIKINGOW\INWAZJAWIKINGOW\DEBUG\VC120.IDB
C:\USERS\PATRYK\DOCUMENTS\VISUAL STUDIO 2013\PROJECTS\INWAZJAWIKINGOW\INWAZJAWIKINGOW\DEBUG\WYGLAD.OBJ
^C:\USERS\PATRYK\DOCUMENTS\VISUAL STUDIO 2013\PROJECTS\INWAZJAWIKINGOW\INWAZJAWIKINGOW\INWAZJAWIKINGOW.CPP|C:\USERS\PATRYK\DOCUMENTS\VISUAL STUDIO 2013\PROJECTS\INWAZJAWIKINGOW\INWAZJAWIKINGOW\STEROWANIE.CPP
C:\USERS\PATRYK\DOCUMENTS\VISUAL STUDIO 2013\PROJECTS\INWAZJAWIKINGOW\INWAZJAWIKINGOW\DEBUG\VC120.PDB
C:\USERS\PATRYK\DOCUMENTS\VISUAL STUDIO 2013\PROJECTS\INWAZJAWIKINGOW\INWAZJAWIKINGOW\DEBUG\VC120.IDB
C:\USERS\PATRYK\DOCUMENTS\VISUAL STUDIO 2013\PROJECTS\INWAZJAWIKINGOW\INWAZJAWIKINGOW\DEBUG\STEROWANIE.OBJ
C:\USERS\PATRYK\DOCUMENTS\VISUAL STUDIO 2013\PROJECTS\INWAZJAWIKINGOW\INWAZJAWIKINGOW\DEBUG\INWAZJAWIKINGOW.OBJ
^C:\USERS\PATRYK\DOCUMENTS\VISUAL STUDIO 2013\PROJECTS\INWAZJAWIKINGOW\INWAZJAWIKINGOW\INWAZJAWIKINGOW.CPP|C:\USERS\PATRYK\DOCUMENTS\VISUAL STUDIO 2013\PROJECTS\INWAZJAWIKINGOW\INWAZJAWIKINGOW\TALIA.CPP
C:\USERS\PATRYK\DOCUMENTS\VISUAL STUDIO 2013\PROJECTS\INWAZJAWIKINGOW\INWAZJAWIKINGOW\DEBUG\VC120.PDB
C:\USERS\PATRYK\DOCUMENTS\VISUAL STUDIO 2013\PROJECTS\INWAZJAWIKINGOW\INWAZJAWIKINGOW\DEBUG\VC120.IDB
C:\USERS\PATRYK\DOCUMENTS\VISUAL STUDIO 2013\PROJECTS\INWAZJAWIKINGOW\INWAZJAWIKINGOW\DEBUG\TALIA.OBJ
C:\USERS\PATRYK\DOCUMENTS\VISUAL STUDIO 2013\PROJECTS\INWAZJAWIKINGOW\INWAZJAWIKINGOW\DEBUG\INWAZJAWIKINGOW.OBJ
